{
    "id": 95,
    "entityName": "ASSET ALERT HISTORY",
    "fields": [{
            "key": "eventId",
            "label": "Id",
            "hidden": true,
            "type": "NUMBER",
            "isDefault": true,
            "sortable": false
        },
        {
            "id": 952,
            "key": "triggeredAt",
            "label": "Date / Time",
            "type": "DATETIME",
            "isDefault": true,
            "filterable" : false,
            "sortable": false
        },
        {
            "id": 953,
            "key": "priority",
            "label": "Priority",
            "type": "TEXT",
            "isDefault": true,
            "filterable" : false,
            "sortable": false
        },
        {
            "id": 954,
            "key": "ackStatus",
            "label": "Status",
            "type": "TEXT",
            "isDefault": true,
            "filterable" : false,
            "sortable": false

        },
        {
            "id": 955,
            "key": "location",
            "label": "Location",
            "description": "Asset details",
            "multiple": true,
            "multiView": true,
            "type": "TEXT",
            "isDefault": true,
            "filterable" : false,
            "sortable": false
        },
        {
            "id": 956,
            "key": "rule.name",
            "label": "Rule",
            "type": "TEXT",
            "isDefault": true,
            "filterable" : false,
            "sortable": false
        }
    ]
}
