{
  "id": 701,
  "entityName": "ROGUE_CLIENTS",
  "fields": [
    {
      "id": 7011,
      "key": "macAddress",
      "label": "MAC Address",
      "entityName": "ROGUE_CLIENTS",
      "description": null,
      "templateLabel": null,
      "type": "TEXT",
      "options": null,
      "collection": null,
      "validation": "TEXT",
      "isDefault": true,
      "required": true,
      "templateUnique": false,
      "templateHidden": true,
      "hidden": false,
      "editable": false,
      "general": false,
      "multiple": false,
      "defaultSelectAll": false,
      "clickableLink": false,
      "sortable": true,
      "filterable": false,
      "min": null,
      "max": null,
      "lastModified": 0,
      "templateId": null
    },
    {
      "id": 7014,
      "key": "coordinates",
      "label": "Co-ordinates",
      "entityName": "ROGUE_CLIENTS",
      "description": null,
      "templateLabel": null,
      "type": "TEXT",
      "options": null,
      "collection": null,
      "validation": "TEXT",
      "isDefault": true,
      "required": true,
      "templateUnique": false,
      "templateHidden": true,
      "hidden": false,
      "editable": false,
      "general": false,
      "multiple": false,
      "defaultSelectAll": false,
      "clickableLink": false,
      "sortable": true,
      "filterable": false,
      "min": null,
      "max": null,
      "lastModified": 0,
      "templateId": null
    },
    {
      "id": 7015,
      "key": "computeType",
      "label": "Compute Type",
      "entityName": "ROGUE_CLIENTS",
      "description": null,
      "templateLabel": null,
      "type": "TEXT",
      "options": null,
      "collection": null,
      "validation": "TEXT",
      "isDefault": true,
      "required": true,
      "templateUnique": false,
      "templateHidden": true,
      "hidden": false,
      "editable": false,
      "general": false,
      "multiple": false,
      "defaultSelectAll": false,
      "clickableLink": false,
      "sortable": true,
      "filterable": false,
      "min": null,
      "max": null,
      "lastModified": 0,
      "templateId": null
    },
    {
      "id": 7016,
      "key": "lastSeen",
      "label": "Last Seen",
      "entityName": "ROGUE_CLIENTS",
      "description": null,
      "templateLabel": null,
      "type": "TEXT",
      "options": null,
      "collection": null,
      "validation": "TEXT",
      "isDefault": true,
      "required": true,
      "templateUnique": false,
      "templateHidden": true,
      "hidden": false,
      "editable": false,
      "general": false,
      "multiple": false,
      "defaultSelectAll": false,
      "clickableLink": false,
      "sortable": true,
      "filterable": false,
      "min": null,
      "max": null,
      "lastModified": 0,
      "templateId": null
    },
    {
      "id": 7017,
      "key": "manufacturer",
      "label": "Manufacturer",
      "entityName": "ROGUE_CLIENTS",
      "description": null,
      "templateLabel": null,
      "type": "TEXT",
      "options": null,
      "collection": null,
      "validation": "TEXT",
      "isDefault": true,
      "required": true,
      "templateUnique": false,
      "templateHidden": true,
      "hidden": false,
      "editable": false,
      "general": false,
      "multiple": false,
      "defaultSelectAll": false,
      "clickableLink": false,
      "sortable": true,
      "filterable": false,
      "min": null,
      "max": null,
      "lastModified": 0,
      "templateId": null
    },
    {
      "id": 7018,
      "key": "containmentLevel",
      "label": "Containment Level",
      "entityName": "ROGUE_CLIENTS",
      "description": null,
      "templateLabel": null,
      "type": "TEXT",
      "options": null,
      "collection": null,
      "validation": "TEXT",
      "isDefault": true,
      "required": true,
      "templateUnique": false,
      "templateHidden": true,
      "hidden": false,
      "editable": false,
      "general": false,
      "multiple": false,
      "defaultSelectAll": false,
      "clickableLink": false,
      "sortable": true,
      "filterable": false,
      "min": null,
      "max": null,
      "lastModified": 0,
      "templateId": null
    },
    {
      "id": 7019,
      "key": "state",
      "label": "State",
      "entityName": "ROGUE_CLIENTS",
      "description": null,
      "templateLabel": null,
      "type": "TEXT",
      "options": null,
      "collection": null,
      "validation": "TEXT",
      "isDefault": true,
      "required": true,
      "templateUnique": false,
      "templateHidden": true,
      "hidden": false,
      "editable": false,
      "general": false,
      "multiple": false,
      "defaultSelectAll": false,
      "clickableLink": false,
      "sortable": true,
      "filterable": false,
      "min": null,
      "max": null,
      "lastModified": 0,
      "templateId": null
    },
    {
      "id": 7020,
      "key": "numOfDetectingAPs",
      "label": "Number of Detecting APs",
      "entityName": "ROGUE_CLIENTS",
      "description": null,
      "templateLabel": null,
      "type": "TEXT",
      "options": null,
      "collection": null,
      "validation": "TEXT",
      "isDefault": true,
      "required": true,
      "templateUnique": false,
      "templateHidden": true,
      "hidden": false,
      "editable": false,
      "general": false,
      "multiple": false,
      "defaultSelectAll": false,
      "clickableLink": false,
      "sortable": true,
      "filterable": false,
      "min": null,
      "max": null,
      "lastModified": 0,
      "templateId": null
    },
    {
      "id": 7021,
      "key": "ssid",
      "label": "SSID",
      "entityName": "ROGUE_CLIENTS",
      "description": null,
      "templateLabel": null,
      "type": "TEXT",
      "options": null,
      "collection": null,
      "validation": "TEXT",
      "isDefault": true,
      "required": true,
      "templateUnique": false,
      "templateHidden": true,
      "hidden": false,
      "editable": false,
      "general": false,
      "multiple": false,
      "defaultSelectAll": false,
      "clickableLink": false,
      "sortable": true,
      "filterable": false,
      "min": null,
      "max": null,
      "lastModified": 0,
      "templateId": null
    },
    {
      "id": 7021,
      "key": "ssid",
      "label": "SSID",
      "entityName": "ROGUE_CLIENTS",
      "description": null,
      "templateLabel": null,
      "type": "TEXT",
      "options": null,
      "collection": null,
      "validation": "TEXT",
      "isDefault": true,
      "required": true,
      "templateUnique": false,
      "templateHidden": true,
      "hidden": false,
      "editable": false,
      "general": false,
      "multiple": false,
      "defaultSelectAll": false,
      "clickableLink": false,
      "sortable": true,
      "filterable": false,
      "min": null,
      "max": null,
      "lastModified": 0,
      "templateId": null
    }
  ],
  "lastModified": "2017-05-06T00:20:41.826Z"
}