{
  "id": 711,
  "entityName": "ROGUE_APS",
  "fields": [
    {
      "id": 7111,
      "key": "macAddress",
      "label": "MAC Address",
      "entityName": "ROGUE_APS",
      "description": null,
      "templateLabel": null,
      "type": "TEXT",
      "options": null,
      "collection": null,
      "validation": "TEXT",
      "isDefault": true,
      "required": true,
      "templateUnique": false,
      "templateHidden": true,
      "hidden": false,
      "editable": false,
      "general": false,
      "multiple": false,
      "defaultSelectAll": false,
      "clickableLink": false,
      "sortable": true,
      "filterable": false,
      "min": null,
      "max": null,
      "lastModified": 0,
      "templateId": null
    },
    {
      "id": 7114,
      "key": "coordinates",
      "label": "Co-ordinates",
      "entityName": "ROGUE_APS",
      "description": null,
      "templateLabel": null,
      "type": "TEXT",
      "options": null,
      "collection": null,
      "validation": "TEXT",
      "isDefault": true,
      "required": true,
      "templateUnique": false,
      "templateHidden": true,
      "hidden": false,
      "editable": false,
      "general": false,
      "multiple": false,
      "defaultSelectAll": false,
      "clickableLink": false,
      "sortable": true,
      "filterable": false,
      "min": null,
      "max": null,
      "lastModified": 0,
      "templateId": null
    },
    {
      "id": 7115,
      "key": "computeType",
      "label": "Compute Type",
      "entityName": "ROGUE_APS",
      "description": null,
      "templateLabel": null,
      "type": "TEXT",
      "options": null,
      "collection": null,
      "validation": "TEXT",
      "isDefault": true,
      "required": true,
      "templateUnique": false,
      "templateHidden": true,
      "hidden": false,
      "editable": false,
      "general": false,
      "multiple": false,
      "defaultSelectAll": false,
      "clickableLink": false,
      "sortable": true,
      "filterable": false,
      "min": null,
      "max": null,
      "lastModified": 0,
      "templateId": null
    },
    {
      "id": 7116,
      "key": "lastSeen",
      "label": "Last Seen",
      "entityName": "ROGUE_APS",
      "description": null,
      "templateLabel": null,
      "type": "TEXT",
      "options": null,
      "collection": null,
      "validation": "TEXT",
      "isDefault": true,
      "required": true,
      "templateUnique": false,
      "templateHidden": true,
      "hidden": false,
      "editable": false,
      "general": false,
      "multiple": false,
      "defaultSelectAll": false,
      "clickableLink": false,
      "sortable": true,
      "filterable": false,
      "min": null,
      "max": null,
      "lastModified": 0,
      "templateId": null
    },
    {
      "id": 7117,
      "key": "manufacturer",
      "label": "Manufacturer",
      "entityName": "ROGUE_APS",
      "description": null,
      "templateLabel": null,
      "type": "TEXT",
      "options": null,
      "collection": null,
      "validation": "TEXT",
      "isDefault": true,
      "required": true,
      "templateUnique": false,
      "templateHidden": true,
      "hidden": false,
      "editable": false,
      "general": false,
      "multiple": false,
      "defaultSelectAll": false,
      "clickableLink": false,
      "sortable": true,
      "filterable": false,
      "min": null,
      "max": null,
      "lastModified": 0,
      "templateId": null
    },
    {
      "id": 7120,
      "key": "ssid",
      "label": "SSID",
      "entityName": "ROGUE_APS",
      "description": null,
      "templateLabel": null,
      "type": "TEXT",
      "options": null,
      "collection": null,
      "validation": "TEXT",
      "isDefault": true,
      "required": true,
      "templateUnique": false,
      "templateHidden": true,
      "hidden": false,
      "editable": false,
      "general": false,
      "multiple": false,
      "defaultSelectAll": false,
      "clickableLink": false,
      "sortable": true,
      "filterable": false,
      "min": null,
      "max": null,
      "lastModified": 0,
      "templateId": null
    },
    {
      "id": 7121,
      "key": "maxRSSI",
      "label": "Max RSSI",
      "entityName": "ROGUE_APS",
      "description": null,
      "templateLabel": null,
      "type": "TEXT",
      "options": null,
      "collection": null,
      "validation": "TEXT",
      "isDefault": true,
      "required": true,
      "templateUnique": false,
      "templateHidden": true,
      "hidden": false,
      "editable": false,
      "general": false,
      "multiple": false,
      "defaultSelectAll": false,
      "clickableLink": false,
      "sortable": true,
      "filterable": false,
      "min": null,
      "max": null,
      "lastModified": 0,
      "templateId": null
    },
    {
      "id": 7122,
      "key": "username",
      "label": "Username",
      "entityName": "ROGUE_APS",
      "description": null,
      "templateLabel": null,
      "type": "TEXT",
      "options": null,
      "collection": null,
      "validation": "TEXT",
      "isDefault": true,
      "required": true,
      "templateUnique": false,
      "templateHidden": true,
      "hidden": false,
      "editable": false,
      "general": false,
      "multiple": false,
      "defaultSelectAll": false,
      "clickableLink": false,
      "sortable": true,
      "filterable": false,
      "min": null,
      "max": null,
      "lastModified": 0,
      "templateId": null
    },
    {
      "id": 7123,
      "key": "band",
      "label": "Band",
      "entityName": "ROGUE_APS",
      "description": null,
      "templateLabel": null,
      "type": "TEXT",
      "options": null,
      "collection": null,
      "validation": "TEXT",
      "isDefault": true,
      "required": true,
      "templateUnique": false,
      "templateHidden": true,
      "hidden": false,
      "editable": false,
      "general": false,
      "multiple": false,
      "defaultSelectAll": false,
      "clickableLink": false,
      "sortable": true,
      "filterable": false,
      "min": null,
      "max": null,
      "lastModified": 0,
      "templateId": null
    },
    {
      "id": 7124,
      "key": "bytesSent",
      "label": "Bytes Sent",
      "entityName": "ROGUE_APS",
      "description": null,
      "templateLabel": null,
      "type": "TEXT",
      "options": null,
      "collection": null,
      "validation": "TEXT",
      "isDefault": true,
      "required": true,
      "templateUnique": false,
      "templateHidden": true,
      "hidden": false,
      "editable": false,
      "general": false,
      "multiple": false,
      "defaultSelectAll": false,
      "clickableLink": false,
      "sortable": true,
      "filterable": false,
      "min": null,
      "max": null,
      "lastModified": 0,
      "templateId": null
    },
    {
      "id": 7125,
      "key": "bytesReceived",
      "label": "Bytes Received",
      "entityName": "ROGUE_APS",
      "description": null,
      "templateLabel": null,
      "type": "TEXT",
      "options": null,
      "collection": null,
      "validation": "TEXT",
      "isDefault": true,
      "required": true,
      "templateUnique": false,
      "templateHidden": true,
      "hidden": false,
      "editable": false,
      "general": false,
      "multiple": false,
      "defaultSelectAll": false,
      "clickableLink": false,
      "sortable": true,
      "filterable": false,
      "min": null,
      "max": null,
      "lastModified": 0,
      "templateId": null
    },
    {
      "id": 7126,
      "key": "totalClients",
      "label": "Total Clients",
      "entityName": "ROGUE_APS",
      "description": null,
      "templateLabel": null,
      "type": "TEXT",
      "options": null,
      "collection": null,
      "validation": "TEXT",
      "isDefault": true,
      "required": true,
      "templateUnique": false,
      "templateHidden": true,
      "hidden": false,
      "editable": false,
      "general": false,
      "multiple": false,
      "defaultSelectAll": false,
      "clickableLink": false,
      "sortable": true,
      "filterable": false,
      "min": null,
      "max": null,
      "lastModified": 0,
      "templateId": null
    },
    {
      "id": 7126,
      "key": "classification",
      "label": "Classification",
      "entityName": "ROGUE_APS",
      "description": null,
      "templateLabel": null,
      "type": "TEXT",
      "options": null,
      "collection": null,
      "validation": "TEXT",
      "isDefault": true,
      "required": true,
      "templateUnique": false,
      "templateHidden": true,
      "hidden": false,
      "editable": false,
      "general": false,
      "multiple": false,
      "defaultSelectAll": false,
      "clickableLink": false,
      "sortable": true,
      "filterable": false,
      "min": null,
      "max": null,
      "lastModified": 0,
      "templateId": null
    },
    {
      "id": 7127,
      "key": "containmentLevel",
      "label": "Containment Level",
      "entityName": "ROGUE_APS",
      "description": null,
      "templateLabel": null,
      "type": "TEXT",
      "options": null,
      "collection": null,
      "validation": "TEXT",
      "isDefault": true,
      "required": true,
      "templateUnique": false,
      "templateHidden": true,
      "hidden": false,
      "editable": false,
      "general": false,
      "multiple": false,
      "defaultSelectAll": false,
      "clickableLink": false,
      "sortable": true,
      "filterable": false,
      "min": null,
      "max": null,
      "lastModified": 0,
      "templateId": null
    },
    {
      "id": 7128,
      "key": "state",
      "label": "State",
      "entityName": "ROGUE_APS",
      "description": null,
      "templateLabel": null,
      "type": "TEXT",
      "options": null,
      "collection": null,
      "validation": "TEXT",
      "isDefault": true,
      "required": true,
      "templateUnique": false,
      "templateHidden": true,
      "hidden": false,
      "editable": false,
      "general": false,
      "multiple": false,
      "defaultSelectAll": false,
      "clickableLink": false,
      "sortable": true,
      "filterable": false,
      "min": null,
      "max": null,
      "lastModified": 0,
      "templateId": null
    }
  ],
  "lastModified": "2017-05-06T00:20:41.826Z"
}