{
    "id": 499,
    "entityName": "WLCS",
    "fields": [
        {
            "id": 4991,
            "key": "id",
            "label": "Id",
            "entityName": "WLCS",
            "description": null,
            "templateLabel": null,
            "type": "TEXT",
            "options": null,
            "collection": null,
            "validation": "TEXT",
            "isDefault": true,
            "required": false,
            "templateUnique": false,
            "templateHidden": true,
            "hidden": true,
            "editable": false,
            "general": false,
            "multiple": false,
            "defaultSelectAll": false,
            "clickableLink": false,
            "sortable": true,
            "filterable": false,
            "min": null,
            "max": null,
            "lastModified": 0,
            "templateId": null
        },
        {
            "id": 4992,
            "key": "tenantId",
            "label": "Tenant Id",
            "entityName": "WLCS",
            "description": null,
            "templateLabel": "Tenant ID",
            "type": "TEXT",
            "options": null,
            "collection": null,
            "validation": "TEXT",
            "isDefault": true,
            "required": false,
            "templateUnique": false,
            "templateHidden": true,
            "hidden": true,
            "editable": true,
            "general": false,
            "multiple": false,
            "defaultSelectAll": false,
            "clickableLink": false,
            "sortable": true,
            "filterable": true,
            "min": null,
            "max": null,
            "lastModified": 0,
            "templateId": null
        },
        {
            "id": 4993,
            "key": "controllerIp",
            "label": "Controller IP",
            "entityName": "WLCS",
            "description": "NN.NN.NN.NN",
            "templateLabel": "Wireless Controller IP",
            "type": "TEXT",
            "options": null,
            "collection": null,
            "validation": "IP_ADDRESS",
            "isDefault": true,
            "required": true,
            "templateUnique": true,
            "templateHidden": false,
            "hidden": false,
            "editable": true,
            "general": true,
            "multiple": false,
            "defaultSelectAll": false,
            "clickableLink": false,
            "sortable": true,
            "filterable": true,
            "min": null,
            "max": null,
            "lastModified": 0,
            "templateId": null
        },
        {
            "id": 4993,
            "key": "name",
            "label": "Name",
            "entityName": "WLCS",
            "description": "Controller Name",
            "templateLabel": "Wireless Controller Name",
            "type": "TEXT",
            "options": null,
            "collection": null,
            "validation": "TEXT",
            "isDefault": true,
            "required": true,
            "templateUnique": false,
            "templateHidden": false,
            "hidden": false,
            "editable": true,
            "general": true,
            "multiple": false,
            "defaultSelectAll": false,
            "clickableLink": false,
            "sortable": true,
            "filterable": true,
            "min": null,
            "max": null,
            "lastModified": 0,
            "templateId": null
        },
        {
            "id": 4995,
            "key": "connectorId",
            "label": "Attached Connector",
            "entityName": "WLCS",
            "description": null,
            "templateLabel": "Connector ID",
            "type": "SELECT",
            "style" : {"width": "15rem"},
            "options": null,
            "collection": "CONNECTORS",
            "validation": "TEXT",
            "isDefault": true,
            "required": false,
            "templateUnique": true,
            "templateHidden": false,
            "hidden": false,
            "editable": true,
            "general": true,
            "multiple": false,
            "defaultSelectAll": false,
            "clickableLink": true,
            "sortable": true,
            "filterable": false,
            "min": null,
            "max": null,
            "lastModified": 0,
            "templateId": null
        },
        {
            "id": 4993,
            "key": "snmp.version",
            "label": "SNMP Version",
            "entityName": "WLCS",
            "description": "SNMP Version",
            "templateLabel": "SNMP Version",
            "type": "SELECT",
            "options": ["v2c", "v3"],
            "style": {"width": "10rem"},
            "collection": null,
            "validation": "TEXT",
            "isDefault": true,
            "required": false,
            "templateUnique": false,
            "templateHidden": false,
            "hidden": false,
            "editable": true,
            "general": true,
            "multiple": false,
            "defaultSelectAll": false,
            "clickableLink": false,
            "sortable": true,
            "filterable": true,
            "min": null,
            "max": null,
            "lastModified": 0,
            "templateId": null
        },
        {
            "id": 4993,
            "key": "snmp.community",
            "label": "SNMP Community",
            "entityName": "WLCS",
            "description": "SNMP Community for v2c",
            "templateLabel": "SNMP Community",
            "type": "TEXT",
            "options": null,
            "collection": null,
            "validation": "TEXT",
            "isDefault": true,
            "required": false,
            "templateUnique": false,
            "templateHidden": false,
            "hidden": false,
            "editable": true,
            "general": true,
            "multiple": false,
            "defaultSelectAll": false,
            "clickableLink": false,
            "sortable": true,
            "filterable": true,
            "min": null,
            "max": null,
            "lastModified": 0,
            "templateId": null
        },
        {
            "id": 4993,
            "key": "snmp.userName",
            "label": "SNMP User Name",
            "entityName": "WLCS",
            "description": "SNMP User Name for v3",
            "templateLabel": "SNMP User Name",
            "type": "TEXT",
            "options": null,
            "collection": null,
            "validation": "TEXT",
            "isDefault": true,
            "required": false,
            "templateUnique": false,
            "templateHidden": false,
            "hidden": false,
            "editable": true,
            "general": true,
            "multiple": false,
            "defaultSelectAll": false,
            "clickableLink": false,
            "sortable": true,
            "filterable": true,
            "min": null,
            "max": null,
            "lastModified": 0,
            "templateId": null
        },
        {
            "id": 4993,
            "key": "snmp.password",
            "label": "SNMP Password",
            "entityName": "WLCS",
            "description": "SNMP Password for v3",
            "templateLabel": "SNMP Password",
            "type": "TEXT",
            "options": null,
            "collection": null,
            "validation": "TEXT",
            "isDefault": true,
            "required": false,
            "templateUnique": false,
            "templateHidden": false,
            "hidden": false,
            "editable": true,
            "general": true,
            "multiple": false,
            "defaultSelectAll": false,
            "clickableLink": false,
            "sortable": true,
            "filterable": true,
            "min": null,
            "max": null,
            "lastModified": 0,
            "templateId": null
        },
        {
            "id": 4993,
            "key": "snmp.auth-protocol",
            "label": "SNMP Authentication Protocol",
            "entityName": "WLCS",
            "description": "SNMP Authentication Protocol for v3",
            "templateLabel": "SNMP Authentication Protocol",
            "type": "SELECT",
            "options": ["None", "HMAC-MD5", "HMAC-SHA"],
            "style": {"width": "10rem"},
            "collection": null,
            "validation": "TEXT",
            "isDefault": true,
            "required": false,
            "templateUnique": false,
            "templateHidden": false,
            "hidden": false,
            "editable": true,
            "general": true,
            "multiple": false,
            "defaultSelectAll": false,
            "clickableLink": false,
            "sortable": true,
            "filterable": true,
            "min": null,
            "max": null,
            "lastModified": 0,
            "templateId": null
        },
        {
            "id": 4993,
            "key": "snmp.privacy-protocol",
            "label": "SNMP Privacy Protocol",
            "entityName": "WLCS",
            "description": "SNMP Privacy Protocol for v3",
            "templateLabel": "SNMP Privacy Protocol",
            "type": "SELECT",
            "options": ["None", "CBC-DES", "CFB-AES-128"],
            "style": {"width": "10rem"},
            "collection": null,
            "validation": "TEXT",
            "isDefault": true,
            "required": false,
            "templateUnique": false,
            "templateHidden": false,
            "hidden": false,
            "editable": true,
            "general": true,
            "multiple": false,
            "defaultSelectAll": false,
            "clickableLink": false,
            "sortable": true,
            "filterable": true,
            "min": null,
            "max": null,
            "lastModified": 0,
            "templateId": null
        },
        {
            "id": 4993,
            "key": "snmp.privacy-password",
            "label": "SNMP Privacy Password",
            "entityName": "WLCS",
            "description": "SNMP Privacy Password for v3",
            "templateLabel": "SNMP Privacy Password",
            "type": "TEXT",
            "options": null,
            "collection": null,
            "validation": "TEXT",
            "isDefault": true,
            "required": false,
            "templateUnique": false,
            "templateHidden": false,
            "hidden": false,
            "editable": true,
            "general": true,
            "multiple": false,
            "defaultSelectAll": false,
            "clickableLink": false,
            "sortable": true,
            "filterable": true,
            "min": null,
            "max": null,
            "lastModified": 0,
            "templateId": null
        },
        {
            "id": 4994,
            "key": "connectorId",
            "label": "Connector Id",
            "entityName": "WLCS",
            "description": null,
            "templateLabel": "Connector ID",
            "type": "TEXT",
            "options": null,
            "collection": null,
            "validation": null,
            "isDefault": false,
            "required": false,
            "templateUnique": false,
            "templateHidden": false,
            "hidden": false,
            "editable": true,
            "general": false,
            "multiple": false,
            "defaultSelectAll": false,
            "clickableLink": false,
            "sortable": true,
            "filterable": true,
            "min": null,
            "max": null,
            "lastModified": 0,
            "templateId": null
        },
        {
            "id": 4995,
            "key": "messageRate",
            "label": "Messages / Second",
            "entityName": "WLCS",
            "description": null,
            "templateLabel": null,
            "type": "NUMBER",
            "options": null,
            "collection": null,
            "validation": null,
            "isDefault": true,
            "required": false,
            "templateUnique": false,
            "templateHidden": true,
            "hidden": false,
            "editable": false,
            "general": false,
            "multiple": false,
            "defaultSelectAll": false,
            "clickableLink": false,
            "sortable": true,
            "filterable": true,
            "min": null,
            "max": null,
            "lastModified": 0,
            "templateId": null
        },
        {
            "id": 4995,
            "key": "lastHeard",
            "label": "Last Heard",
            "entityName": "WLCS",
            "description": null,
            "templateLabel": null,
            "type": "DATETIME",
            "options": null,
            "collection": null,
            "validation": null,
            "isDefault": true,
            "required": false,
            "templateUnique": false,
            "templateHidden": true,
            "hidden": false,
            "editable": false,
            "general": false,
            "multiple": false,
            "defaultSelectAll": false,
            "clickableLink": false,
            "sortable": true,
            "filterable": true,
            "min": null,
            "max": null,
            "lastModified": 0,
            "templateId": null
        },
        {
            "id": 4995,
            "key": "lastHeardData",
            "label": "Last Data",
            "entityName": "WLCS",
            "description": null,
            "templateLabel": null,
            "type": "DATETIME",
            "options": null,
            "collection": null,
            "validation": null,
            "isDefault": true,
            "required": false,
            "templateUnique": false,
            "templateHidden": true,
            "hidden": false,
            "editable": false,
            "general": false,
            "multiple": false,
            "defaultSelectAll": false,
            "clickableLink": false,
            "sortable": true,
            "filterable": true,
            "min": null,
            "max": null,
            "lastModified": 0,
            "templateId": null
        },
        {
            "id": 4996,
            "key": "updatedAt",
            "label": "Updated At",
            "entityName": "WLCS",
            "description": null,
            "templateLabel": null,
            "type": "DATETIME",
            "options": null,
            "collection": null,
            "validation": null,
            "isDefault": true,
            "required": false,
            "templateUnique": false,
            "templateHidden": true,
            "hidden": false,
            "editable": false,
            "general": false,
            "multiple": false,
            "defaultSelectAll": false,
            "clickableLink": false,
            "sortable": true,
            "filterable": false,
            "min": null,
            "max": null,
            "lastModified": 0,
            "templateId": null
        }
    ],
    "lastModified": "2017-05-06T00:20:41.826Z"
}