{
  "TEXT": [
    {
      "key": "label",
      "label": "Label",
      "required": true,
      "type": "text"
    },
    {
      "key": "description",
      "label": "Description",
      "type": "textarea"
    },
    {
      "key": "required",
      "label": "Required",
      "type": "switch"
    }
  ],
  "NUMBER": [],
  "CHECKBOX": [],
  "SELECT": [
    {
      "key": "label",
      "label": "Label",
      "required": true,
      "type": "text"
    },
    {
      "key": "description",
      "label": "Description",
      "type": "textarea"
    },
    {
      "key": "options",
      "label": "Options",
      "required": true,
      "type": "tag"
    },
    {
      "key": "required",
      "label": "Required",
      "type": "switch"
    }
  ],
  "RADIO": [],
  "CASCADER": [],
  "TEL": [
    {
      "key": "label",
      "label": "Label",
      "required": true,
      "type": "text"
    },
    {
      "key": "description",
      "label": "Description",
      "type": "textarea"
    },
    {
      "key": "required",
      "label": "Required",
      "type": "switch"
    }
  ],
  "DATE": [
    {
      "key": "label",
      "label": "Label",
      "required": true,
      "type": "text"
    },
    {
      "key": "description",
      "label": "Description",
      "type": "textarea"
    },
    {
      "key": "required",
      "label": "Required",
      "type": "switch"
    }
  ],
  "OPTIONS": [],
  "PARAGRAPH": [
    {
      "key": "label",
      "label": "Label",
      "required": true,
      "type": "text"
    },
    {
      "key": "description",
      "label": "Description",
      "type": "textarea"
    },
    {
      "key": "required",
      "label": "Required",
      "type": "switch"
    }
  ],
  "PASSWORD": [],
  "TREE_SELECT": [],
  "LOCATION": [],
  "definitions": {
    "label": {
      "key": "label",
      "label": "Label",
      "required": true,
      "type": "text"
    },
    "description": {
      "key": "description",
      "label": "Description",
      "type": "textarea"
    },
    "required": {
      "key": "required",
      "label": "Required",
      "type": "switch"
    }
  }
}