{
  "api": {
    "ui": "/",
    "deviceManager": "api/dms/v1",
    "tokenAuthenticationService": "api/dms/v1",
    "apiServices": "api/apiserver/v1",
    "authService": "api/configurations/v1",
    "mapsService": "api/configurations/v1/maps",
    "tenantServices": "#/login",
    "tokenHeader": "x-cmx-auth",
    "tenantHeader": "x-cmx-tenant"
  }
}
