{
  "api": {
    "sdkManager": "http://localhost:9999/api/am/v1/entities",
    "apiServices": "https://location-sandbox-api.cmxdemo.com/api/apiserver/v1",
    "authService": "http://localhost:4000/api/am/v1/auth",
    "historyService": "http://localhost:8300/api/am/v1/history",
    "timelineService": "http://localhost:8300/api/am/v1/gateway/timeline",
    "rulesService": "http://localhost:8100/api/am/v1/rules",
    "mapsService": "http://localhost:8800/api/apiserver/v1/map",
    "alertService": "http://localhost:8200/api/am/v1/alerts",
    "widgetService": "http://localhost:8200/api/am/v1/widgets",
    "cmxService": "http://localhost:8200/api/am/v1/manage",
    "tenantServices": "http://localhost:8200/",
    "tokenHeader": "x-cmx-auth",
    "tenantHeader": "x-cmx-tenant"
  }
}
