{
  "localDomain": "localhost",
  "envConfig": {
    "mock": "http://localhost:9876",
    "sandbox": "https://mobile-sandbox.cmxdemo.com",
    "test": "https://mobile-test.cmxdemo.com",
    "staging": "https://sdk-staging-api.cmxdemo.com",
    "prod": "https://mobile.cmxcisco.com",
    "development": {
      "ui": "http://localhost:5000",
      "deviceManager": "http://localhost:6688/api/dms/v1",
      "tokenAuthenticationService": "http://localhost:6688/api/dms/v1",
      "apiServices": "http://localhost:3003/api/apiserver/v1",
      "authService": "http://localhost:3005/api/auth-service/v1",
      "mapsService": "http://localhost:8800/api/apiserver/v1/map",
      "tenantServices": "http://localhost:8200/",
      "tokenHeader": "x-cmx-auth",
      "tenantHeader": "x-cmx-tenant"
    }
  }
}
